^C:\USERS\MOSS\DESKTOP\REPOS\BOX2DTESTS\CODE\SOURCES\EMAINWINDOW.CPP
/c /ZI /JMC /nologo /W3 /WX- /diagnostics:classic /sdl /Od /D _MBCS /Gm- /EHsc /RTC1 /MDd /GS /fp:precise /permissive- /Zc:wchar_t /Zc:forScope /Zc:inline /Fo"X64\DEBUG\\" /Fd"X64\DEBUG\VC141.PDB" /Gd /TP /FC C:\USERS\MOSS\DESKTOP\REPOS\BOX2DTESTS\CODE\SOURCES\EMAINWINDOW.CPP
^C:\USERS\MOSS\DESKTOP\REPOS\BOX2DTESTS\CODE\SOURCES\EMOVABLEPLATFORM.CPP
/c /ZI /JMC /nologo /W3 /WX- /diagnostics:classic /sdl /Od /D _MBCS /Gm- /EHsc /RTC1 /MDd /GS /fp:precise /permissive- /Zc:wchar_t /Zc:forScope /Zc:inline /Fo"X64\DEBUG\\" /Fd"X64\DEBUG\VC141.PDB" /Gd /TP /FC C:\USERS\MOSS\DESKTOP\REPOS\BOX2DTESTS\CODE\SOURCES\EMOVABLEPLATFORM.CPP
^C:\USERS\MOSS\DESKTOP\REPOS\BOX2DTESTS\CODE\SOURCES\ESCENEENTITY.CPP
/c /ZI /JMC /nologo /W3 /WX- /diagnostics:classic /sdl /Od /D _MBCS /Gm- /EHsc /RTC1 /MDd /GS /fp:precise /permissive- /Zc:wchar_t /Zc:forScope /Zc:inline /Fo"X64\DEBUG\\" /Fd"X64\DEBUG\VC141.PDB" /Gd /TP /FC C:\USERS\MOSS\DESKTOP\REPOS\BOX2DTESTS\CODE\SOURCES\ESCENEENTITY.CPP
^C:\USERS\MOSS\DESKTOP\REPOS\BOX2DTESTS\CODE\HEADERS\EBODY.CPP
/c /ZI /JMC /nologo /W3 /WX- /diagnostics:classic /sdl /Od /D _MBCS /Gm- /EHsc /RTC1 /MDd /GS /fp:precise /permissive- /Zc:wchar_t /Zc:forScope /Zc:inline /Fo"X64\DEBUG\\" /Fd"X64\DEBUG\VC141.PDB" /Gd /TP /FC C:\USERS\MOSS\DESKTOP\REPOS\BOX2DTESTS\CODE\HEADERS\EBODY.CPP
^C:\USERS\MOSS\DESKTOP\REPOS\BOX2DTESTS\CODE\SOURCES\ETRIGGER.CPP
/c /ZI /JMC /nologo /W3 /WX- /diagnostics:classic /sdl /Od /D _MBCS /Gm- /EHsc /RTC1 /MDd /GS /fp:precise /permissive- /Zc:wchar_t /Zc:forScope /Zc:inline /Fo"X64\DEBUG\\" /Fd"X64\DEBUG\VC141.PDB" /Gd /TP /FC C:\USERS\MOSS\DESKTOP\REPOS\BOX2DTESTS\CODE\SOURCES\ETRIGGER.CPP
^C:\USERS\MOSS\DESKTOP\REPOS\BOX2DTESTS\CODE\HEADERS\EENTITY.CPP
/c /ZI /JMC /nologo /W3 /WX- /diagnostics:classic /sdl /Od /D _MBCS /Gm- /EHsc /RTC1 /MDd /GS /fp:precise /permissive- /Zc:wchar_t /Zc:forScope /Zc:inline /Fo"X64\DEBUG\\" /Fd"X64\DEBUG\VC141.PDB" /Gd /TP /FC C:\USERS\MOSS\DESKTOP\REPOS\BOX2DTESTS\CODE\HEADERS\EENTITY.CPP
^C:\USERS\MOSS\DESKTOP\REPOS\BOX2DTESTS\CODE\SOURCES\EELEVATOR.CPP
/c /ZI /JMC /nologo /W3 /WX- /diagnostics:classic /sdl /Od /D _MBCS /Gm- /EHsc /RTC1 /MDd /GS /fp:precise /permissive- /Zc:wchar_t /Zc:forScope /Zc:inline /Fo"X64\DEBUG\\" /Fd"X64\DEBUG\VC141.PDB" /Gd /TP /FC C:\USERS\MOSS\DESKTOP\REPOS\BOX2DTESTS\CODE\SOURCES\EELEVATOR.CPP
^C:\USERS\MOSS\DESKTOP\REPOS\BOX2DTESTS\CODE\HEADERS\RENDERABLE.CPP
/c /ZI /JMC /nologo /W3 /WX- /diagnostics:classic /sdl /Od /D _MBCS /Gm- /EHsc /RTC1 /MDd /GS /fp:precise /permissive- /Zc:wchar_t /Zc:forScope /Zc:inline /Fo"X64\DEBUG\\" /Fd"X64\DEBUG\VC141.PDB" /Gd /TP /FC C:\USERS\MOSS\DESKTOP\REPOS\BOX2DTESTS\CODE\HEADERS\RENDERABLE.CPP
^C:\USERS\MOSS\DESKTOP\REPOS\BOX2DTESTS\CODE\HEADERS\EPARTICLE.CPP
/c /ZI /JMC /nologo /W3 /WX- /diagnostics:classic /sdl /Od /D _MBCS /Gm- /EHsc /RTC1 /MDd /GS /fp:precise /permissive- /Zc:wchar_t /Zc:forScope /Zc:inline /Fo"X64\DEBUG\\" /Fd"X64\DEBUG\VC141.PDB" /Gd /TP /FC C:\USERS\MOSS\DESKTOP\REPOS\BOX2DTESTS\CODE\HEADERS\EPARTICLE.CPP
^C:\USERS\MOSS\DESKTOP\REPOS\BOX2DTESTS\CODE\SOURCES\EPARTICLEEMITTER.CPP
/c /ZI /JMC /nologo /W3 /WX- /diagnostics:classic /sdl /Od /D _MBCS /Gm- /EHsc /RTC1 /MDd /GS /fp:precise /permissive- /Zc:wchar_t /Zc:forScope /Zc:inline /Fo"X64\DEBUG\\" /Fd"X64\DEBUG\VC141.PDB" /Gd /TP /FC C:\USERS\MOSS\DESKTOP\REPOS\BOX2DTESTS\CODE\SOURCES\EPARTICLEEMITTER.CPP
^C:\USERS\MOSS\DESKTOP\REPOS\BOX2DTESTS\CODE\HEADERS\EPHYSICSWORLD.CPP
/c /ZI /JMC /nologo /W3 /WX- /diagnostics:classic /sdl /Od /D _MBCS /Gm- /EHsc /RTC1 /MDd /GS /fp:precise /permissive- /Zc:wchar_t /Zc:forScope /Zc:inline /Fo"X64\DEBUG\\" /Fd"X64\DEBUG\VC141.PDB" /Gd /TP /FC C:\USERS\MOSS\DESKTOP\REPOS\BOX2DTESTS\CODE\HEADERS\EPHYSICSWORLD.CPP
^C:\USERS\MOSS\DESKTOP\REPOS\BOX2DTESTS\CODE\HEADERS\ESCENE.CPP
/c /ZI /JMC /nologo /W3 /WX- /diagnostics:classic /sdl /Od /D _MBCS /Gm- /EHsc /RTC1 /MDd /GS /fp:precise /permissive- /Zc:wchar_t /Zc:forScope /Zc:inline /Fo"X64\DEBUG\\" /Fd"X64\DEBUG\VC141.PDB" /Gd /TP /FC C:\USERS\MOSS\DESKTOP\REPOS\BOX2DTESTS\CODE\HEADERS\ESCENE.CPP
^C:\USERS\MOSS\DESKTOP\REPOS\BOX2DTESTS\CODE\SOURCES\MAIN.CPP
/c /ZI /JMC /nologo /W3 /WX- /diagnostics:classic /sdl /Od /D _MBCS /Gm- /EHsc /RTC1 /MDd /GS /fp:precise /permissive- /Zc:wchar_t /Zc:forScope /Zc:inline /Fo"X64\DEBUG\\" /Fd"X64\DEBUG\VC141.PDB" /Gd /TP /FC C:\USERS\MOSS\DESKTOP\REPOS\BOX2DTESTS\CODE\SOURCES\MAIN.CPP
