^C:\USERS\MOSS\DESKTOP\REPOS\BOX2DTESTS\PROJECTS\BOX2DENTREGA\X64\DEBUG\EBODY.OBJ|C:\USERS\MOSS\DESKTOP\REPOS\BOX2DTESTS\PROJECTS\BOX2DENTREGA\X64\DEBUG\EELEVATOR.OBJ|C:\USERS\MOSS\DESKTOP\REPOS\BOX2DTESTS\PROJECTS\BOX2DENTREGA\X64\DEBUG\EENTITY.OBJ|C:\USERS\MOSS\DESKTOP\REPOS\BOX2DTESTS\PROJECTS\BOX2DENTREGA\X64\DEBUG\EMAINWINDOW.OBJ|C:\USERS\MOSS\DESKTOP\REPOS\BOX2DTESTS\PROJECTS\BOX2DENTREGA\X64\DEBUG\EPARTICLE.OBJ|C:\USERS\MOSS\DESKTOP\REPOS\BOX2DTESTS\PROJECTS\BOX2DENTREGA\X64\DEBUG\EPARTICLEEMITTER.OBJ|C:\USERS\MOSS\DESKTOP\REPOS\BOX2DTESTS\PROJECTS\BOX2DENTREGA\X64\DEBUG\EPHYSICSWORLD.OBJ|C:\USERS\MOSS\DESKTOP\REPOS\BOX2DTESTS\PROJECTS\BOX2DENTREGA\X64\DEBUG\ESCENE.OBJ|C:\USERS\MOSS\DESKTOP\REPOS\BOX2DTESTS\PROJECTS\BOX2DENTREGA\X64\DEBUG\ESCENEENTITY.OBJ|C:\USERS\MOSS\DESKTOP\REPOS\BOX2DTESTS\PROJECTS\BOX2DENTREGA\X64\DEBUG\ETRIGGER.OBJ|C:\USERS\MOSS\DESKTOP\REPOS\BOX2DTESTS\PROJECTS\BOX2DENTREGA\X64\DEBUG\MAIN.OBJ|C:\USERS\MOSS\DESKTOP\REPOS\BOX2DTESTS\PROJECTS\BOX2DENTREGA\X64\DEBUG\RENDERABLE.OBJ
C:\USERS\MOSS\DESKTOP\REPOS\BOX2DTESTS\PROJECTS\BOX2DENTREGA\X64\DEBUG\BOX2DENTREGA.EXE
C:\USERS\MOSS\DESKTOP\REPOS\BOX2DTESTS\PROJECTS\BOX2DENTREGA\X64\DEBUG\BOX2DENTREGA.ILK
C:\USERS\MOSS\DESKTOP\REPOS\BOX2DTESTS\PROJECTS\BOX2DENTREGA\X64\DEBUG\BOX2DENTREGA.PDB
